1 10 20
100 200 125
201 210 89
900 1000 174
1 1 1
10 1 20
264 4647 238
6273 125 262
4400 5357 210
8884 7935 252
6153 5385 236
9741 533 262
9253 6296 257
2732 4260 238
1375 8973 262
2300 6374 262
4775 1017 238
7898 9727 260
3159 2548 217
918 605 179
9660 8034 260
804 8868 262
158 938 179
6207 9239 257
8824 609 262
1344 2658 209
6905 2058 262
2768 6577 262
7168 6319 257
8417 652 262
449 5113 238
968 9378 262
8472 3782 262
5860 4547 236
9983 4798 262
9329 540 262
2966 3120 186
4270 4937 215
5075 2739 238
6051 5160 236
958 3091 217
4944 9132 262
243 3390 217
5743 3044 238
2533 4839 238
1212 9140 262
4828 5228 210
2963 1117 217
5191 4437 210
9733 1237 262
1331 8800 262
2367 5725 238
2020 344 182
5727 4361 236
6621 8323 257
9719 5020 262
8262 5260 262
6166 5833 218
3899 5280 215
2297 9937 262
389 9737 262
8917 4617 262
4087 2257 238
6889 5407 262
8556 5210 262
4408 6883 262
4429 6028 236
433 8155 262
513 8545 262
6977 9759 260
2000 4063 238
8161 4785 262
3333 4173 238
4925 6240 262
6602 4987 262
5658 9318 262
8987 8174 247
3125 7592 262
8458 9982 260
2731 2081 209
7801 2411 262
9504 8792 260
6248 2581 262
7702 1999 262
357 3964 238
5581 261 238
5882 1302 238
8309 4561 262
659 9909 262
7824 712 262
1093 7169 262
6615 8915 257
9782 5263 262
4182 4529 215
9134 2600 262
4262 5747 236
7328 3502 262
8681 2979 262
8208 4010 262
4442 8426 262
5038 292 238
