1 2 2
1 1 1
5233 5423 192
4171 4277 202
5910 6137 187
8357 8420 159
8845 8962 247
9578 9634 167
1451 1846 180
5171 5276 192
6589 6964 257
662 1000 179
831 954 179
4259 4663 215
9243 9632 260
8916 9353 260
8176 8393 234
1116 1302 182
4353 4437 215
5904 6150 187
5882 6163 187
7785 8099 252
8135 8523 234
3474 3561 181
6268 6339 200
8800 9086 247
6837 7082 257
8512 8802 216
9954 10004 180
104 153 122
8156 8455 234
5101 5428 192
2543 3020 217
9161 9569 260
4759 4888 197
5021 5497 192
3659 3974 238
7609 7710 177
6792 6961 257
7361 7857 239
8210 8514 234
2721 2959 217
3478 3928 238
7742 8013 252
6278 6447 200
919 1406 182
4000 4191 189
8988 9073 185
3842 4165 189
8963 9447 260
7957 8036 252
7694 8132 252
8672 9156 247
9142 9421 260
5468 5520 192
9982 10006 180
5918 6070 187
7025 7157 195
4552 4674 184
4494 4512 153
1914 1942 175
8968 9277 260
7367 7393 208
3467 3570 194
7117 7533 239
1787 2284 183
8918 9174 247
7307 7538 239
4681 5176 210
1256 1490 177
777 905 179
5531 5792 236
7094 7559 239
7216 7536 239
3708 3715 238
5753 6214 262
4032 4439 215
1964 2142 170
4984 5364 192
8651 9053 247
6529 6822 244
8375 8679 203
4315 4647 215
3553 3801 238
1260 1342 177
5464 5737 236
947 981 143
2435 2456 134
7728 7876 221
2124 2530 209
2984 3461 199
3372 3653 194
6168 6197 262
1967 2266 183
2796 2811 160
868 1099 179
9244 9486 260
2326 2718 209
7819 8272 252
414 620 142
6930 7274 257
8586 8672 172
5547 5687 236
8180 8382 234
5546 5996 236
6505 6796 244
7106 7343 195
7542 7961 221
8963 9441 260
1162 1270 177
499 674 145
1528 1970 180
9518 9766 198
4046 4238 202
6235 6378 200
725 1150 179
2388 2485 209
9863 10145 242
1807 2198 175
4646 4752 184
577 945 179
2871 3298 217
3519 3770 238
9887 10107 242
2309 2417 183
330 772 171
1182 1512 177
2915 3116 217
9418 9915 242
530 1023 179
2181 2351 183
6717 7099 257
4736 5056 210
5434 5446 117
4811 5183 210
5733 5890 218
6462 6483 169
2752 2778 160
6094 6305 262
4049 4105 158
9910 10373 242
2865 3124 217
1154 1419 182
38 346 144
9011 9501 260
8416 8605 203
9535 9972 242
8308 8420 234
507 614 137
3782 3922 176
1231 1585 177
1405 1511 172
